{
  "name": "query+info",
  "mode": "prop",
  "fieldname": "pages",
  "prop": "inprop",
  "fields": [
    {
      "name": "contentmodel",
      "type_": "String",
      "prop": "=default"
    },
    {
      "name": "pagelanguage",
      "type_": "String",
      "prop": "=default"
    },
    {
      "name": "pagelanguagehtmlcode",
      "type_": "String",
      "prop": "=default"
    },
    {
      "name": "pagelanguagedir",
      "type_": "String",
      "prop": "=default"
    },
    {
      "name": "touched",
      "type_": {
        "inner": "timestamp",
        "option": true
      },
      "prop": "=default"
    },
    {
      "name": "lastrevid",
      "type_": {
        "inner": "u64",
        "option": true
      },
      "prop": "=default"
    },
    {
      "name": "length",
      "type_": {
        "inner": "u32",
        "option": true
      },
      "prop": "=default"
    },
    {
      "name": "redirect",
      "type_": "bool",
      "default": true,
      "prop": "=default"
    },
    {
      "name": "new",
      "type_": "bool",
      "default": true,
      "prop": "=default"
    },
    {
      "name": "restrictiontypes",
      "type_": {
        "inner": "String",
        "vec": true
      },
      "prop": "protection"
    },
    {
      "name": "protection",
      "type_": {
        "inner": "mwapi_responses::protection::ProtectionInfo",
        "vec": true
      },
      "prop": "protection"
    },
    {
      "name": "talkid",
      "type_": {
        "inner": "u32",
        "option": true
      },
      "prop": "talkid"
    },
    {
      "name": "watched",
      "type_": "bool",
      "prop": "watched"
    },
    {
      "name": "watchers",
      "type_": {
        "inner": "u32",
        "option": true
      },
      "prop": "watchers"
    },
    {
      "name": "visitingwatchers",
      "type_": {
        "inner": "u32",
        "option": true
      },
      "prop": "visitingwatchers"
    },
    {
      "name": "notificationtimestamp",
      "type_": {
        "inner": "timestamp",
        "option": true
      },
      "prop": "notificationtimestamp",
      "deserialize_with": "::mwapi_responses::timestamp::deserialize_notificationtimestamp"
    },
    {
      "name": "subjectid",
      "type_": {
        "inner": "u32",
        "option": true
      },
      "prop": "subjectid"
    },
    {
      "name": "associatedpage",
      "type_": "String",
      "prop": "associatedpage"
    },
    {
      "name": "fullurl",
      "type_": "String",
      "prop": "url"
    },
    {
      "name": "editurl",
      "type_": "String",
      "prop": "url"
    },
    {
      "name": "canonicalurl",
      "type_": "String",
      "prop": "url"
    },
    {
      "name": "preload",
      "type_": {
        "inner": "String",
        "option": true
      },
      "prop": "preload"
    },
    {
      "name": "displaytitle",
      "type_": "String",
      "prop": "displaytitle"
    },
    {
      "name": "varianttitles",
      "type_": {
        "key": "String",
        "value": "String"
      },
      "default": true,
      "prop": "varianttitles"
    },
    {
      "name": "linkclasses",
      "type_": {
        "inner": "String",
        "vec": true
      },
      "default": true,
      "prop": "linkclasses"
    }
  ],
  "test_extra": {
    "assert": {
      "continue": false,
      "length": 3
    },
    "params": {
      "titles": "Taylor Swift|Talk:Taylor Swift|This article does not exist, please"
    }
  }
}
